%YAML 1.1
%TAG !u! tag:unity3d.com,2011:
--- !u!114 &11400000
MonoBehaviour:
  m_ObjectHideFlags: 0
  m_CorrespondingSourceObject: {fileID: 0}
  m_PrefabInstance: {fileID: 0}
  m_PrefabAsset: {fileID: 0}
  m_GameObject: {fileID: 0}
  m_Enabled: 1
  m_EditorHideFlags: 0
  m_Script: {fileID: 11500000, guid: f4d4f60f5f37e4281a417b595ce14a51, type: 3}
  m_Name: LevelData
  m_EditorClassIdentifier: 
  _LevelDatas:
  - _LevelName: level 1
    _TextAsset: {fileID: 4900000, guid: c0eb8c591406f804081754a2fc05d2e8, type: 3}
    _TileCounts:
    - _Sprite: {fileID: 21300000, guid: 188d6c6214c314633930cb6262c720c3, type: 3}
      _NoOfTile: 2
    - _Sprite: {fileID: 21300000, guid: d51197fc55a4d4d03bff7c961701e6b5, type: 3}
      _NoOfTile: 6
  - _LevelName: level 2
    _TextAsset: {fileID: 4900000, guid: 60574af1bd8014226a1a24269d1f1cde, type: 3}
    _TileCounts:
    - _Sprite: {fileID: 21300000, guid: 2a35cff9a46f44f2c84c93213b3216cd, type: 3}
      _NoOfTile: 20
    - _Sprite: {fileID: 21300000, guid: 263af8fe2b1f14c679019184ba13532c, type: 3}
      _NoOfTile: 20
    - _Sprite: {fileID: 21300000, guid: 2ed76c26e362740bb9fd7349afd390c2, type: 3}
      _NoOfTile: 26
  - _LevelName: level 3
    _TextAsset: {fileID: 4900000, guid: 20d2c1408d44248d3be6bdd55a586529, type: 3}
    _TileCounts:
    - _Sprite: {fileID: 21300000, guid: 2ed76c26e362740bb9fd7349afd390c2, type: 3}
      _NoOfTile: 28
    - _Sprite: {fileID: 21300000, guid: a9013ebf9a610413fa2b92113dd89ce9, type: 3}
      _NoOfTile: 32
    - _Sprite: {fileID: 21300000, guid: fcb1768f3e87a4aefa06fe0a6652789e, type: 3}
      _NoOfTile: 4
    - _Sprite: {fileID: 21300000, guid: c63bd5ea86a1f4a9480072a9eee8b7e0, type: 3}
      _NoOfTile: 8
  - _LevelName: level 4
    _TextAsset: {fileID: 4900000, guid: dad3c32ccf8d04413936094a308a652b, type: 3}
    _TileCounts:
    - _Sprite: {fileID: 21300000, guid: c63bd5ea86a1f4a9480072a9eee8b7e0, type: 3}
      _NoOfTile: 10
    - _Sprite: {fileID: 21300000, guid: a90c64cd7adec41ebb5595ca83321ddf, type: 3}
      _NoOfTile: 20
    - _Sprite: {fileID: 21300000, guid: e52cc8c3ad0ba4f87a5e25516388009f, type: 3}
      _NoOfTile: 30
    - _Sprite: {fileID: 21300000, guid: d22232b529a434131b2784986beb3b7b, type: 3}
      _NoOfTile: 10
    - _Sprite: {fileID: 21300000, guid: e926c8206189a4724ac67a860b2490b2, type: 3}
      _NoOfTile: 20
  - _LevelName: level 5
    _TextAsset: {fileID: 4900000, guid: 0a1b4d0dd9a444ccd885738f8d7cc776, type: 3}
    _TileCounts:
    - _Sprite: {fileID: 21300000, guid: c63bd5ea86a1f4a9480072a9eee8b7e0, type: 3}
      _NoOfTile: 10
    - _Sprite: {fileID: 21300000, guid: 2ed76c26e362740bb9fd7349afd390c2, type: 3}
      _NoOfTile: 8
    - _Sprite: {fileID: 21300000, guid: a9013ebf9a610413fa2b92113dd89ce9, type: 3}
      _NoOfTile: 12
    - _Sprite: {fileID: 21300000, guid: d52a9a6bf0c224b6da83fa21be7ace0e, type: 3}
      _NoOfTile: 30
    - _Sprite: {fileID: 21300000, guid: 698915990d24f42cd98dc010725b69ca, type: 3}
      _NoOfTile: 18
    - _Sprite: {fileID: 21300000, guid: f359bd2c38e27496bb61ab8e215178af, type: 3}
      _NoOfTile: 20
